^C:\USERS\ALMERO\DESKTOP\ASCENDANCY-MASTER\PENER SDK\UTILS\VMT.CPP
/c /Zi /nologo /W0 /WX- /diagnostics:classic /sdl /O2 /Oi /Oy- /GL /D _CRT_SECURE_NO_WARNINGS /D _WINDLL /D _MBCS /Gm- /EHsc /MD /GS /Gy /fp:precise /Zc:wchar_t /Zc:forScope /Zc:inline /Fo"RELEASE\\" /Fd"RELEASE\VC141.PDB" /Gd /TP /analyze- /FC C:\USERS\ALMERO\DESKTOP\ASCENDANCY-MASTER\PENER SDK\UTILS\VMT.CPP
^C:\USERS\ALMERO\DESKTOP\ASCENDANCY-MASTER\PENER SDK\MENU\MENU_COMMANDS.CPP
/c /Zi /nologo /W0 /WX- /diagnostics:classic /sdl /O2 /Oi /Oy- /GL /D _CRT_SECURE_NO_WARNINGS /D _WINDLL /D _MBCS /Gm- /EHsc /MD /GS /Gy /fp:precise /Zc:wchar_t /Zc:forScope /Zc:inline /Fo"RELEASE\\" /Fd"RELEASE\VC141.PDB" /Gd /TP /analyze- /FC C:\USERS\ALMERO\DESKTOP\ASCENDANCY-MASTER\PENER SDK\MENU\MENU_COMMANDS.CPP
^C:\USERS\ALMERO\DESKTOP\ASCENDANCY-MASTER\PENER SDK\MENU\MENU_FRAMEWORK.CPP
/c /Zi /nologo /W0 /WX- /diagnostics:classic /sdl /O2 /Oi /Oy- /GL /D _CRT_SECURE_NO_WARNINGS /D _WINDLL /D _MBCS /Gm- /EHsc /MD /GS /Gy /fp:precise /Zc:wchar_t /Zc:forScope /Zc:inline /Fo"RELEASE\\" /Fd"RELEASE\VC141.PDB" /Gd /TP /analyze- /FC C:\USERS\ALMERO\DESKTOP\ASCENDANCY-MASTER\PENER SDK\MENU\MENU_FRAMEWORK.CPP
^C:\USERS\ALMERO\DESKTOP\ASCENDANCY-MASTER\PENER SDK\MENU\MENU_OBJECTS.CPP
/c /Zi /nologo /W0 /WX- /diagnostics:classic /sdl /O2 /Oi /Oy- /GL /D _CRT_SECURE_NO_WARNINGS /D _WINDLL /D _MBCS /Gm- /EHsc /MD /GS /Gy /fp:precise /Zc:wchar_t /Zc:forScope /Zc:inline /Fo"RELEASE\\" /Fd"RELEASE\VC141.PDB" /Gd /TP /analyze- /FC C:\USERS\ALMERO\DESKTOP\ASCENDANCY-MASTER\PENER SDK\MENU\MENU_OBJECTS.CPP
^C:\USERS\ALMERO\DESKTOP\ASCENDANCY-MASTER\PENER SDK\SDK\SDK.CPP
/c /Zi /nologo /W0 /WX- /diagnostics:classic /sdl /O2 /Oi /Oy- /GL /D _CRT_SECURE_NO_WARNINGS /D _WINDLL /D _MBCS /Gm- /EHsc /MD /GS /Gy /fp:precise /Zc:wchar_t /Zc:forScope /Zc:inline /Fo"RELEASE\\" /Fd"RELEASE\VC141.PDB" /Gd /TP /analyze- /FC C:\USERS\ALMERO\DESKTOP\ASCENDANCY-MASTER\PENER SDK\SDK\SDK.CPP
^C:\USERS\ALMERO\DESKTOP\ASCENDANCY-MASTER\PENER SDK\UTILS\NETVARHOOKMANAGER.CPP
/c /Zi /nologo /W0 /WX- /diagnostics:classic /sdl /O2 /Oi /Oy- /GL /D _CRT_SECURE_NO_WARNINGS /D _WINDLL /D _MBCS /Gm- /EHsc /MD /GS /Gy /fp:precise /Zc:wchar_t /Zc:forScope /Zc:inline /Fo"RELEASE\\" /Fd"RELEASE\VC141.PDB" /Gd /TP /analyze- /FC C:\USERS\ALMERO\DESKTOP\ASCENDANCY-MASTER\PENER SDK\UTILS\NETVARHOOKMANAGER.CPP
^C:\USERS\ALMERO\DESKTOP\ASCENDANCY-MASTER\PENER SDK\UTILS\INPUT_HANDLER.CPP
/c /Zi /nologo /W0 /WX- /diagnostics:classic /sdl /O2 /Oi /Oy- /GL /D _CRT_SECURE_NO_WARNINGS /D _WINDLL /D _MBCS /Gm- /EHsc /MD /GS /Gy /fp:precise /Zc:wchar_t /Zc:forScope /Zc:inline /Fo"RELEASE\\" /Fd"RELEASE\VC141.PDB" /Gd /TP /analyze- /FC C:\USERS\ALMERO\DESKTOP\ASCENDANCY-MASTER\PENER SDK\UTILS\INPUT_HANDLER.CPP
^C:\USERS\ALMERO\DESKTOP\ASCENDANCY-MASTER\PENER SDK\UTILS\INTERFACES.CPP
/c /Zi /nologo /W0 /WX- /diagnostics:classic /sdl /O2 /Oi /Oy- /GL /D _CRT_SECURE_NO_WARNINGS /D _WINDLL /D _MBCS /Gm- /EHsc /MD /GS /Gy /fp:precise /Zc:wchar_t /Zc:forScope /Zc:inline /Fo"RELEASE\\" /Fd"RELEASE\VC141.PDB" /Gd /TP /analyze- /FC C:\USERS\ALMERO\DESKTOP\ASCENDANCY-MASTER\PENER SDK\UTILS\INTERFACES.CPP
^C:\USERS\ALMERO\DESKTOP\ASCENDANCY-MASTER\PENER SDK\UTILS\LOGGING.CPP
/c /Zi /nologo /W0 /WX- /diagnostics:classic /sdl /O2 /Oi /Oy- /GL /D _CRT_SECURE_NO_WARNINGS /D _WINDLL /D _MBCS /Gm- /EHsc /MD /GS /Gy /fp:precise /Zc:wchar_t /Zc:forScope /Zc:inline /Fo"RELEASE\\" /Fd"RELEASE\VC141.PDB" /Gd /TP /analyze- /FC C:\USERS\ALMERO\DESKTOP\ASCENDANCY-MASTER\PENER SDK\UTILS\LOGGING.CPP
^C:\USERS\ALMERO\DESKTOP\ASCENDANCY-MASTER\PENER SDK\UTILS\MATH.CPP
/c /Zi /nologo /W0 /WX- /diagnostics:classic /sdl /O2 /Oi /Oy- /GL /D _CRT_SECURE_NO_WARNINGS /D _WINDLL /D _MBCS /Gm- /EHsc /MD /GS /Gy /fp:precise /Zc:wchar_t /Zc:forScope /Zc:inline /Fo"RELEASE\\" /Fd"RELEASE\VC141.PDB" /Gd /TP /analyze- /FC C:\USERS\ALMERO\DESKTOP\ASCENDANCY-MASTER\PENER SDK\UTILS\MATH.CPP
^C:\USERS\ALMERO\DESKTOP\ASCENDANCY-MASTER\PENER SDK\UTILS\OFFSETS.CPP
/c /Zi /nologo /W0 /WX- /diagnostics:classic /sdl /O2 /Oi /Oy- /GL /D _CRT_SECURE_NO_WARNINGS /D _WINDLL /D _MBCS /Gm- /EHsc /MD /GS /Gy /fp:precise /Zc:wchar_t /Zc:forScope /Zc:inline /Fo"RELEASE\\" /Fd"RELEASE\VC141.PDB" /Gd /TP /analyze- /FC C:\USERS\ALMERO\DESKTOP\ASCENDANCY-MASTER\PENER SDK\UTILS\OFFSETS.CPP
^C:\USERS\ALMERO\DESKTOP\ASCENDANCY-MASTER\PENER SDK\UTILS\RENDER.CPP
/c /Zi /nologo /W0 /WX- /diagnostics:classic /sdl /O2 /Oi /Oy- /GL /D _CRT_SECURE_NO_WARNINGS /D _WINDLL /D _MBCS /Gm- /EHsc /MD /GS /Gy /fp:precise /Zc:wchar_t /Zc:forScope /Zc:inline /Fo"RELEASE\\" /Fd"RELEASE\VC141.PDB" /Gd /TP /analyze- /FC C:\USERS\ALMERO\DESKTOP\ASCENDANCY-MASTER\PENER SDK\UTILS\RENDER.CPP
^C:\USERS\ALMERO\DESKTOP\ASCENDANCY-MASTER\PENER SDK\UTILS\SPOOFEDCONVAR.CPP
/c /Zi /nologo /W0 /WX- /diagnostics:classic /sdl /O2 /Oi /Oy- /GL /D _CRT_SECURE_NO_WARNINGS /D _WINDLL /D _MBCS /Gm- /EHsc /MD /GS /Gy /fp:precise /Zc:wchar_t /Zc:forScope /Zc:inline /Fo"RELEASE\\" /Fd"RELEASE\VC141.PDB" /Gd /TP /analyze- /FC C:\USERS\ALMERO\DESKTOP\ASCENDANCY-MASTER\PENER SDK\UTILS\SPOOFEDCONVAR.CPP
^C:\USERS\ALMERO\DESKTOP\ASCENDANCY-MASTER\PENER SDK\UTILS\VARIABLES.CPP
/c /Zi /nologo /W0 /WX- /diagnostics:classic /sdl /O2 /Oi /Oy- /GL /D _CRT_SECURE_NO_WARNINGS /D _WINDLL /D _MBCS /Gm- /EHsc /MD /GS /Gy /fp:precise /Zc:wchar_t /Zc:forScope /Zc:inline /Fo"RELEASE\\" /Fd"RELEASE\VC141.PDB" /Gd /TP /analyze- /FC C:\USERS\ALMERO\DESKTOP\ASCENDANCY-MASTER\PENER SDK\UTILS\VARIABLES.CPP
^C:\USERS\ALMERO\DESKTOP\ASCENDANCY-MASTER\PENER SDK\MAIN.CPP
/c /Zi /nologo /W0 /WX- /diagnostics:classic /sdl /O2 /Oi /Oy- /GL /D _CRT_SECURE_NO_WARNINGS /D _WINDLL /D _MBCS /Gm- /EHsc /MD /GS /Gy /fp:precise /Zc:wchar_t /Zc:forScope /Zc:inline /Fo"RELEASE\\" /Fd"RELEASE\VC141.PDB" /Gd /TP /analyze- /FC C:\USERS\ALMERO\DESKTOP\ASCENDANCY-MASTER\PENER SDK\MAIN.CPP
^C:\USERS\ALMERO\DESKTOP\ASCENDANCY-MASTER\PENER SDK\FEATURES\AIMBOT.CPP
/c /Zi /nologo /W0 /WX- /diagnostics:classic /sdl /O2 /Oi /Oy- /GL /D _CRT_SECURE_NO_WARNINGS /D _WINDLL /D _MBCS /Gm- /EHsc /MD /GS /Gy /fp:precise /Zc:wchar_t /Zc:forScope /Zc:inline /Fo"RELEASE\\" /Fd"RELEASE\VC141.PDB" /Gd /TP /analyze- /FC C:\USERS\ALMERO\DESKTOP\ASCENDANCY-MASTER\PENER SDK\FEATURES\AIMBOT.CPP
^C:\USERS\ALMERO\DESKTOP\ASCENDANCY-MASTER\PENER SDK\FEATURES\ANTIAIM.CPP
/c /Zi /nologo /W0 /WX- /diagnostics:classic /sdl /O2 /Oi /Oy- /GL /D _CRT_SECURE_NO_WARNINGS /D _WINDLL /D _MBCS /Gm- /EHsc /MD /GS /Gy /fp:precise /Zc:wchar_t /Zc:forScope /Zc:inline /Fo"RELEASE\\" /Fd"RELEASE\VC141.PDB" /Gd /TP /analyze- /FC C:\USERS\ALMERO\DESKTOP\ASCENDANCY-MASTER\PENER SDK\FEATURES\ANTIAIM.CPP
^C:\USERS\ALMERO\DESKTOP\ASCENDANCY-MASTER\PENER SDK\FEATURES\AUTOWALL.CPP
/c /Zi /nologo /W0 /WX- /diagnostics:classic /sdl /O2 /Oi /Oy- /GL /D _CRT_SECURE_NO_WARNINGS /D _WINDLL /D _MBCS /Gm- /EHsc /MD /GS /Gy /fp:precise /Zc:wchar_t /Zc:forScope /Zc:inline /Fo"RELEASE\\" /Fd"RELEASE\VC141.PDB" /Gd /TP /analyze- /FC C:\USERS\ALMERO\DESKTOP\ASCENDANCY-MASTER\PENER SDK\FEATURES\AUTOWALL.CPP
^C:\USERS\ALMERO\DESKTOP\ASCENDANCY-MASTER\PENER SDK\FEATURES\BACKTRACKING.CPP
/c /Zi /nologo /W0 /WX- /diagnostics:classic /sdl /O2 /Oi /Oy- /GL /D _CRT_SECURE_NO_WARNINGS /D _WINDLL /D _MBCS /Gm- /EHsc /MD /GS /Gy /fp:precise /Zc:wchar_t /Zc:forScope /Zc:inline /Fo"RELEASE\\" /Fd"RELEASE\VC141.PDB" /Gd /TP /analyze- /FC C:\USERS\ALMERO\DESKTOP\ASCENDANCY-MASTER\PENER SDK\FEATURES\BACKTRACKING.CPP
^C:\USERS\ALMERO\DESKTOP\ASCENDANCY-MASTER\PENER SDK\FEATURES\CHAMS.CPP
/c /Zi /nologo /W0 /WX- /diagnostics:classic /sdl /O2 /Oi /Oy- /GL /D _CRT_SECURE_NO_WARNINGS /D _WINDLL /D _MBCS /Gm- /EHsc /MD /GS /Gy /fp:precise /Zc:wchar_t /Zc:forScope /Zc:inline /Fo"RELEASE\\" /Fd"RELEASE\VC141.PDB" /Gd /TP /analyze- /FC C:\USERS\ALMERO\DESKTOP\ASCENDANCY-MASTER\PENER SDK\FEATURES\CHAMS.CPP
^C:\USERS\ALMERO\DESKTOP\ASCENDANCY-MASTER\PENER SDK\FEATURES\EVENTLISTENER.CPP
/c /Zi /nologo /W0 /WX- /diagnostics:classic /sdl /O2 /Oi /Oy- /GL /D _CRT_SECURE_NO_WARNINGS /D _WINDLL /D _MBCS /Gm- /EHsc /MD /GS /Gy /fp:precise /Zc:wchar_t /Zc:forScope /Zc:inline /Fo"RELEASE\\" /Fd"RELEASE\VC141.PDB" /Gd /TP /analyze- /FC C:\USERS\ALMERO\DESKTOP\ASCENDANCY-MASTER\PENER SDK\FEATURES\EVENTLISTENER.CPP
^C:\USERS\ALMERO\DESKTOP\ASCENDANCY-MASTER\PENER SDK\FEATURES\FAKELAG.CPP
/c /Zi /nologo /W0 /WX- /diagnostics:classic /sdl /O2 /Oi /Oy- /GL /D _CRT_SECURE_NO_WARNINGS /D _WINDLL /D _MBCS /Gm- /EHsc /MD /GS /Gy /fp:precise /Zc:wchar_t /Zc:forScope /Zc:inline /Fo"RELEASE\\" /Fd"RELEASE\VC141.PDB" /Gd /TP /analyze- /FC C:\USERS\ALMERO\DESKTOP\ASCENDANCY-MASTER\PENER SDK\FEATURES\FAKELAG.CPP
^C:\USERS\ALMERO\DESKTOP\ASCENDANCY-MASTER\PENER SDK\FEATURES\FAKEWALK.CPP
/c /Zi /nologo /W0 /WX- /diagnostics:classic /sdl /O2 /Oi /Oy- /GL /D _CRT_SECURE_NO_WARNINGS /D _WINDLL /D _MBCS /Gm- /EHsc /MD /GS /Gy /fp:precise /Zc:wchar_t /Zc:forScope /Zc:inline /Fo"RELEASE\\" /Fd"RELEASE\VC141.PDB" /Gd /TP /analyze- /FC C:\USERS\ALMERO\DESKTOP\ASCENDANCY-MASTER\PENER SDK\FEATURES\FAKEWALK.CPP
^C:\USERS\ALMERO\DESKTOP\ASCENDANCY-MASTER\PENER SDK\FEATURES\MOVEMENT.CPP
/c /Zi /nologo /W0 /WX- /diagnostics:classic /sdl /O2 /Oi /Oy- /GL /D _CRT_SECURE_NO_WARNINGS /D _WINDLL /D _MBCS /Gm- /EHsc /MD /GS /Gy /fp:precise /Zc:wchar_t /Zc:forScope /Zc:inline /Fo"RELEASE\\" /Fd"RELEASE\VC141.PDB" /Gd /TP /analyze- /FC C:\USERS\ALMERO\DESKTOP\ASCENDANCY-MASTER\PENER SDK\FEATURES\MOVEMENT.CPP
^C:\USERS\ALMERO\DESKTOP\ASCENDANCY-MASTER\PENER SDK\FEATURES\RESOLVER.CPP
/c /Zi /nologo /W0 /WX- /diagnostics:classic /sdl /O2 /Oi /Oy- /GL /D _CRT_SECURE_NO_WARNINGS /D _WINDLL /D _MBCS /Gm- /EHsc /MD /GS /Gy /fp:precise /Zc:wchar_t /Zc:forScope /Zc:inline /Fo"RELEASE\\" /Fd"RELEASE\VC141.PDB" /Gd /TP /analyze- /FC C:\USERS\ALMERO\DESKTOP\ASCENDANCY-MASTER\PENER SDK\FEATURES\RESOLVER.CPP
^C:\USERS\ALMERO\DESKTOP\ASCENDANCY-MASTER\PENER SDK\FEATURES\SHOWRANKS.CPP
/c /Zi /nologo /W0 /WX- /diagnostics:classic /sdl /O2 /Oi /Oy- /GL /D _CRT_SECURE_NO_WARNINGS /D _WINDLL /D _MBCS /Gm- /EHsc /MD /GS /Gy /fp:precise /Zc:wchar_t /Zc:forScope /Zc:inline /Fo"RELEASE\\" /Fd"RELEASE\VC141.PDB" /Gd /TP /analyze- /FC C:\USERS\ALMERO\DESKTOP\ASCENDANCY-MASTER\PENER SDK\FEATURES\SHOWRANKS.CPP
^C:\USERS\ALMERO\DESKTOP\ASCENDANCY-MASTER\PENER SDK\FEATURES\VISUALS.CPP
/c /Zi /nologo /W0 /WX- /diagnostics:classic /sdl /O2 /Oi /Oy- /GL /D _CRT_SECURE_NO_WARNINGS /D _WINDLL /D _MBCS /Gm- /EHsc /MD /GS /Gy /fp:precise /Zc:wchar_t /Zc:forScope /Zc:inline /Fo"RELEASE\\" /Fd"RELEASE\VC141.PDB" /Gd /TP /analyze- /FC C:\USERS\ALMERO\DESKTOP\ASCENDANCY-MASTER\PENER SDK\FEATURES\VISUALS.CPP
^C:\USERS\ALMERO\DESKTOP\ASCENDANCY-MASTER\PENER SDK\HOOKS\HOOKS.CPP
/c /Zi /nologo /W0 /WX- /diagnostics:classic /sdl /O2 /Oi /Oy- /GL /D _CRT_SECURE_NO_WARNINGS /D _WINDLL /D _MBCS /Gm- /EHsc /MD /GS /Gy /fp:precise /Zc:wchar_t /Zc:forScope /Zc:inline /Fo"RELEASE\\" /Fd"RELEASE\VC141.PDB" /Gd /TP /analyze- /FC C:\USERS\ALMERO\DESKTOP\ASCENDANCY-MASTER\PENER SDK\HOOKS\HOOKS.CPP
^C:\USERS\ALMERO\DESKTOP\ASCENDANCY-MASTER\PENER SDK\MENU\MENU_INIT.CPP
/c /Zi /nologo /W0 /WX- /diagnostics:classic /sdl /O2 /Oi /Oy- /GL /D _CRT_SECURE_NO_WARNINGS /D _WINDLL /D _MBCS /Gm- /EHsc /MD /GS /Gy /fp:precise /Zc:wchar_t /Zc:forScope /Zc:inline /Fo"RELEASE\\" /Fd"RELEASE\VC141.PDB" /Gd /TP /analyze- /FC C:\USERS\ALMERO\DESKTOP\ASCENDANCY-MASTER\PENER SDK\MENU\MENU_INIT.CPP
^C:\USERS\ALMERO\DESKTOP\ASCENDANCY-MASTER\PENER SDK\UTILS\GENERAL_UTILS.CPP
/c /Zi /nologo /W0 /WX- /diagnostics:classic /sdl /O2 /Oi /Oy- /GL /D _CRT_SECURE_NO_WARNINGS /D _WINDLL /D _MBCS /Gm- /EHsc /MD /GS /Gy /fp:precise /Zc:wchar_t /Zc:forScope /Zc:inline /Fo"RELEASE\\" /Fd"RELEASE\VC141.PDB" /Gd /TP /analyze- /FC C:\USERS\ALMERO\DESKTOP\ASCENDANCY-MASTER\PENER SDK\UTILS\GENERAL_UTILS.CPP
